\relax 
\@nameuse{bbl@beforestart}
\catcode `:\active 
\catcode `;\active 
\catcode `!\active 
\catcode `?\active 
\babel@aux{french}{}
\@writefile{toc}{\contentsline {section}{\numberline {1}Consolidation de donnée}{1}\protected@file@percent }
\@writefile{toc}{\contentsline {subsection}{\numberline {1.1}Situation actuelle}{1}\protected@file@percent }
\@writefile{toc}{\contentsline {subsection}{\numberline {1.2}Objectif}{1}\protected@file@percent }
\@writefile{toc}{\contentsline {section}{\numberline {2}Analyse}{1}\protected@file@percent }
\@writefile{toc}{\contentsline {subsection}{\numberline {2.1}Definition de notions}{1}\protected@file@percent }
\@writefile{toc}{\contentsline {subsection}{\numberline {2.2}Études des entree}{2}\protected@file@percent }
\@writefile{toc}{\contentsline {subsubsection}{\numberline {2.2.1}Produit}{3}\protected@file@percent }
\@writefile{toc}{\contentsline {subsubsection}{\numberline {2.2.2}DLC}{3}\protected@file@percent }
\@writefile{toc}{\contentsline {subsubsection}{\numberline {2.2.3}MongoDB}{3}\protected@file@percent }
\@writefile{toc}{\contentsline {paragraph}{Reference}{4}\protected@file@percent }
\@writefile{toc}{\contentsline {paragraph}{Produit}{4}\protected@file@percent }
\@writefile{toc}{\contentsline {subsection}{\numberline {2.3}Etudes des attendues et scnario possible}{4}\protected@file@percent }
\@writefile{toc}{\contentsline {paragraph}{Reference}{5}\protected@file@percent }
\@writefile{toc}{\contentsline {paragraph}{Produit}{6}\protected@file@percent }
\@writefile{toc}{\contentsline {section}{\numberline {3}Solution proposee}{6}\protected@file@percent }
\@writefile{toc}{\contentsline {subsection}{\numberline {3.1}Vue de generale}{6}\protected@file@percent }
\@writefile{toc}{\contentsline {subsection}{\numberline {3.2}Systeme de versionning}{6}\protected@file@percent }
\@writefile{toc}{\contentsline {subsection}{\numberline {3.3}Déroulement chronologique}{7}\protected@file@percent }
\@writefile{toc}{\contentsline {subsection}{\numberline {3.4}Erreur possible - Solution proposée}{7}\protected@file@percent }
