\babel@toc {french}{}
\contentsline {section}{\numberline {1}Consolidation de donnée}{1}%
\contentsline {subsection}{\numberline {1.1}Situation actuelle}{1}%
\contentsline {subsection}{\numberline {1.2}Objectif}{1}%
\contentsline {section}{\numberline {2}Analyse}{1}%
\contentsline {subsection}{\numberline {2.1}Definition de notions}{1}%
\contentsline {subsection}{\numberline {2.2}Études des entree}{2}%
\contentsline {subsubsection}{\numberline {2.2.1}Produit}{3}%
\contentsline {subsubsection}{\numberline {2.2.2}DLC}{3}%
\contentsline {subsubsection}{\numberline {2.2.3}MongoDB}{3}%
\contentsline {paragraph}{Reference}{4}%
\contentsline {paragraph}{Produit}{4}%
\contentsline {subsection}{\numberline {2.3}Etudes des attendues et scnario possible}{4}%
\contentsline {paragraph}{Reference}{5}%
\contentsline {paragraph}{Produit}{6}%
\contentsline {section}{\numberline {3}Solution proposee}{6}%
\contentsline {subsection}{\numberline {3.1}Vue de generale}{6}%
\contentsline {subsection}{\numberline {3.2}Systeme de versionning}{6}%
\contentsline {subsection}{\numberline {3.3}Déroulement chronologique}{7}%
\contentsline {subsection}{\numberline {3.4}Erreur possible - Solution proposée}{7}%
